// Jest Snapshot v1, https://goo.gl/fbAQLP

exports[`validate-env Node.js API returns correct validation status and errors for invalid .env 1`] = `
Object {
  "errors": Array [
    Object {
      "dataPath": "",
      "keyword": "additionalProperties",
      "message": "should NOT have additional properties",
      "params": Object {
        "additionalProperty": "FOO",
      },
      "schemaPath": "#/additionalProperties",
    },
    Object {
      "dataPath": "",
      "keyword": "required",
      "message": "should have required property 'DB_USER'",
      "params": Object {
        "missingProperty": "DB_USER",
      },
      "schemaPath": "#/required",
    },
  ],
  "valid": false,
}
`;

exports[`validate-env Node.js API returns correct validation status and no errors for valid .env 1`] = `
Object {
  "errors": Array [],
  "valid": true,
}
`;

exports[`validate-env Node.js API throws on invalid options 1`] = `
[Error: [
  {
    "keyword": "required",
    "dataPath": "",
    "schemaPath": "#/required",
    "params": {
      "missingProperty": "envFilePath"
    },
    "message": "should have required property 'envFilePath'"
  },
  {
    "keyword": "pattern",
    "dataPath": ".jsonSchemaPath",
    "schemaPath": "#/properties/jsonSchemaPath/pattern",
    "params": {
      "pattern": "\\\\.(js|json)$"
    },
    "message": "should match pattern \\"\\\\.(js|json)$\\""
  }
]]
`;
